…
여기에 group_by() 함수를 추가로 이용하면 그룹별로 다양한 집계를 할 수 있습니다.

예제에 사용된 데이터는 미국 휴스턴에서 출발하는 모든 비행기의 2011년 이착륙기록이 수록된 것으로 227,496건의 이착륙기록에 대해 21개 항목을 수집한 데이터입니다.

> dim(hflights)

#> [1] 227496     21

hflights 데이터는 관측치의 수가 많기 때문에 tbl_df 형식으로 변환해서 사용하는 것을 추천합니다.

> hflights_df <- tbl_df(hflights)
> hflights_df

#> # A tibble: 227,496 x 21
#>     Year Month Dayo… DayO… DepT… ArrT… Uniq… Flig… Tail… Actu… AirT… ArrD…
#>  * <int> <int> <int> <int> <int> <int> <chr> <int> <chr> <int> <int> <int>
#>  1  2011     1     1     6  1400  1500 AA      428 N576…    60    40   -10
#>  2  2011     1     2     7  1401  1501 AA      428 N557…    60    45   - 9
#>  3  2011     1     3     1  1352  1502 AA      428 N541…    70    48   - 8
#>  4  2011     1     4     2  1403  1513 AA      428 N403…    70    39     3
#>  5  2011     1     5     3  1405  1507 AA      428 N492…    62    44   - 3
#>  6  2011     1     6     4  1359  1503 AA      428 N262…    64    45   - 7
#>  7  2011     1     7     5  1359  1509 AA      428 N493…    70    43   - 1
#>  8  2011     1     8     6  1355  1454 AA      428 N477…    59    40   -16
#>  9  2011     1     9     7  1443  1554 AA      428 N476…    71    41    44
#> 10  2011     1    10     1  1443  1553 AA      428 N504…    70    45    43
#> # ... with 227,486 more rows, and 9 more variables: DepDelay <int>, Origin
#> #   <chr>, Dest <chr>, Distance <int>, TaxiIn <int>, TaxiOut <int>,
#> #   Cancelled <int>, CancellationCode <chr>, Diverted <int>

이렇게 하면 모든 데이터를 화면에 출력하는 실수를 방지할 수 있습니다.

함수 filter()를 이용한 데이터 추출

함수 filter()는 조건에 따라 행(row)을 추출합니다. 사용방법은 첫 번째 인수로 추출 대상이 되는 데이터 프레임을 지정하고, 두 번째 인수로 추출하고 싶은 행의 조건을 지정합니다. 이 서술방법은 dplyr 패키지의 다른 기본함수에도 똑같이 적용됩니다. AND 조건문 콤마(,)로 구별하거나 & 연산자를 사용해도 되며 OR 조건문은 | 연산자를 이용합니다.

> # 1월 1일 데이터 추출
> filter(hflights_df, Month == 1, DayofMonth == 1)

#> # A tibble: 552 x 21
#>     Year Month Dayo… DayO… DepT… ArrT… Uniq… Flig… Tail… Actu… AirT… ArrD…
#>    <int> <int> <int> <int> <int> <int> <chr> <int> <chr> <int> <int> <int>
#>  1  2011     1     1     6  1400  1500 AA      428 N576…    60    40   -10
#>  2  2011     1     1     6   728   840 AA      460 N520…    72    41     5
#>  3  2011     1     1     6  1631  1736 AA     1121 N4WV…    65    37   - 9
#>  4  2011     1     1     6  1756  2112 AA     1294 N3DG…   136   113   - 3
#>  5  2011     1     1     6  1012  1347 AA     1700 N3DA…   155   117     7
#>  6  2011     1     1     6  1211  1325 AA     1820 N593…    74    39    15
#>  7  2011     1     1     6   557   906 AA     1994 N3BB…   129   113   - 9
#>  8  2011     1     1     6  1824  2106 AS      731 N614…   282   255   - 4
#>  9  2011     1     1     6   654  1124 B6      620 N324…   210   181     5
#> 10  2011     1     1     6  1639  2110 B6      622 N324…   211   188    61
#> # ... with 542 more rows, and 9 more variables: DepDelay <int>, Origin
#> #   <chr>, Dest <chr>, Distance <int>, TaxiIn <int>, TaxiOut <int>,
#> #   Cancelled <int>, CancellationCode <chr>, Diverted <int>

> # 1월 혹은 2월 데이터 추출
> filter(hflights_df, Month == 1 | Month == 2)

#> # A tibble: 36,038 x 21
#>     Year Month Dayo… DayO… DepT… ArrT… Uniq… Flig… Tail… Actu… AirT… ArrD…
#>    <int> <int> <int> <int> <int> <int> <chr> <int> <chr> <int> <int> <int>
#>  1  2011     1     1     6  1400  1500 AA      428 N576…    60    40   -10
#>  2  2011     1     2     7  1401  1501 AA      428 N557…    60    45   - 9
#>  3  2011     1     3     1  1352  1502 AA      428 N541…    70    48   - 8
#>  4  2011     1     4     2  1403  1513 AA      428 N403…    70    39     3
#>  5  2011     1     5     3  1405  1507 AA      428 N492…    62    44   - 3
#>  6  2011     1     6     4  1359  1503 AA      428 N262…    64    45   - 7
#>  7  2011     1     7     5  1359  1509 AA      428 N493…    70    43   - 1
#>  8  2011     1     8     6  1355  1454 AA      428 N477…    59    40   -16
#>  9  2011     1     9     7  1443  1554 AA      428 N476…    71    41    44
#> 10  2011     1    10     1  1443  1553 AA      428 N504…    70    45    43
#> # ... with 36,028 more rows, and 9 more variables: DepDelay <int>, Origin
#> #   <chr>, Dest <chr>, Distance <int>, TaxiIn <int>, TaxiOut <int>,
#> #   Cancelled <int>, CancellationCode <chr>, Diverted <int>

함수 arrange()를 이용한 정렬

함수 arrange()는 지정한 열을 기준으로 작은 값으로부터 큰 값의 순으로 데이터를 정렬합니다. 역순으로 정렬할 때는 함수 desc()를 함께 사용합니다.

> # 데이터를 ArrDelay, Month, Year 순으로 정렬
> arrange(hflights_df, ArrDelay, Month, Year)

#> # A tibble: 227,496 x 21
#>     Year Month Dayo… DayO… DepT… ArrT… Uniq… Flig… Tail… Actu… AirT… ArrD…
#>    <int> <int> <int> <int> <int> <int> <chr> <int> <chr> <int> <int> <int>
#>  1  2011     7     3     7  1914  2039 XE     2804 N121…    85    66   -70
#>  2  2011    12    25     7   741   926 OO     4591 N814…   165   147   -57
#>  3  2011     8    21     7   935  1039 OO     2001 N767…   184   171   -56
#>  4  2011     8    31     3   934  1039 OO     2040 N783…   185   172   -56
#>  5  2011     8    26     5  2107  2205 OO     2003 N713…   178   163   -55
#>  6  2011    12    24     6  2129  2337 CO     1552 N374…   248   234   -55
#>  7  2011     8    28     7  2059  2206 OO     2003 N783…   187   171   -54
#>  8  2011     8    29     1   935  1041 OO     2040 N767…   186   169   -54
#>  9  2011     8    18     4   939  1043 OO     2001 N783…   184   172   -52
#> 10  2011    12    24     6  2117  2258 CO     1712 N748…   221   200   -51
#> # ... with 227,486 more rows, and 9 more variables: DepDelay <int>, Origin
#> #   <chr>, Dest <chr>, Distance <int>, TaxiIn <int>, TaxiOut <int>,
#> #   Cancelled <int>, CancellationCode <chr>, Diverted <int>

> # 데이터를 Month의 큰 값으로 부터 작은 값 순으로 정렬
> arrange(hflights_df, desc(Month))

#> # A tibble: 227,496 x 21
#>     Year Month Dayo… DayO… DepT… ArrT… Uniq… Flig… Tail… Actu… AirT… ArrD…
#>    <int> <int> <int> <int> <int> <int> <chr> <int> <chr> <int> <int> <int>
#>  1  2011    12    15     4  2113  2217 AA      426 N433…    64    44    47
#>  2  2011    12    16     5  2004  2128 AA      426 N588…    84    39   - 2
#>  3  2011    12    18     7  2007  2113 AA      426 N4XH…    66    46   -17
#>  4  2011    12    19     1  2108  2223 AA      426 N4YD…    75    54    53
#>  5  2011    12    20     2  2008  2107 AA      426 N434…    59    41   -23
#>  6  2011    12    21     3  2025  2124 AA      426 N589…    59    43   - 6
#>  7  2011    12    22     4  2021  2118 AA      426 N4YC…    57    39   -12
#>  8  2011    12    23     5  2015  2118 AA      426 N510…    63    36   -12
#>  9  2011    12    26     1  2013  2118 AA      426 N4YL…    65    43   -12
#> 10  2011    12    27     2  2007  2123 AA      426 N4YT…    76    53   - 7
#> # ... with 227,486 more rows, and 9 more variables: DepDelay <int>, Origin
#> #   <chr>, Dest <chr>, Distance <int>, TaxiIn <int>, TaxiOut <int>,
#> #   Cancelled <int>, CancellationCode <chr>, Diverted <int>

함수 select(), mutate()를 이용한 열의 조작

함수 select()는 열(column)을 추출합니다. 복수의 열을 추출할 때에는 콤마(,)로 구분하며 인접한 열을 추출할 때에는 : 연산자를 이용할 수 있습니다.

지정한 열 이외의 다른 열을 추출하고 싶을 때는 괄호 안에 제외하고 하고 싶은 열의 이름을 지정하고 괄호 앞에 - 부호를 붙여줍니다.

> # Year, Month, DayOfWeek 열을 추출
> select(hflights_df, Year, Month, DayOfWeek)

#> # A tibble: 227,496 x 3
#>     Year Month DayOfWeek
#>  * <int> <int>     <int>
#>  1  2011     1         6
#>  2  2011     1         7
#>  3  2011     1         1
#>  4  2011     1         2
#>  5  2011     1         3
#>  6  2011     1         4
#>  7  2011     1         5
#>  8  2011     1         6
#>  9  2011     1         7
#> 10  2011     1         1
#> # ... with 227,486 more rows

> # Year부터 DayOfWeek까지 추출(Year, Month, DayofMonth, DayofWeek)
> select(hflights_df, Year:DayOfWeek)

#> # A tibble: 227,496 x 4
#>     Year Month DayofMonth DayOfWeek
#>  * <int> <int>      <int>     <int>
#>  1  2011     1          1         6
#>  2  2011     1          2         7
#>  3  2011     1          3         1
#>  4  2011     1          4         2
#>  5  2011     1          5         3
#>  6  2011     1          6         4
#>  7  2011     1          7         5
#>  8  2011     1          8         6
#>  9  2011     1          9         7
#> 10  2011     1         10         1
#> # ... with 227,486 more rows

> # Year부터 DayOfWeek를 제외한 나머지 열을 추출
> select(hflights_df, -(Year:DayOfWeek))

#> # A tibble: 227,496 x 17
#>    DepT… ArrT… Uniq… Flig… Tail… Actu… AirT… ArrD… DepD… Orig… Dest  Dist…
#>  * <int> <int> <chr> <int> <chr> <int> <int> <int> <int> <chr> <chr> <int>
#>  1  1400  1500 AA      428 N576…    60    40   -10     0 IAH   DFW     224
#>  2  1401  1501 AA      428 N557…    60    45   - 9     1 IAH   DFW     224
#>  3  1352  1502 AA      428 N541…    70    48   - 8   - 8 IAH   DFW     224
#>  4  1403  1513 AA      428 N403…    70    39     3     3 IAH   DFW     224
#>  5  1405  1507 AA      428 N492…    62    44   - 3     5 IAH   DFW     224
#>  6  1359  1503 AA      428 N262…    64    45   - 7   - 1 IAH   DFW     224
#>  7  1359  1509 AA      428 N493…    70    43   - 1   - 1 IAH   DFW     224
#>  8  1355  1454 AA      428 N477…    59    40   -16   - 5 IAH   DFW     224
#>  9  1443  1554 AA      428 N476…    71    41    44    43 IAH   DFW     224
#> 10  1443  1553 AA      428 N504…    70    45    43    43 IAH   DFW     224
#> # ... with 227,486 more rows, and 5 more variables: TaxiIn <int>, TaxiOut
#> #   <int>, Cancelled <int>, CancellationCode <chr>, Diverted <int>

함수 mutate()는 열을 추가할 때 사용합니다.

비슷한 기능을 하는 함수로 transform()이 있지만, 함수 mutate()는 함수에서 새로 만든 열을 같은 함수 안에서 바로 사용할 수 있는 장점이 있습니다. 글보다는 예제를 보는 것이 이해가 빠를 것 같습니다.

> # 생성된 열 gain을 gain_per_hour의 계산에 사용할 수 있음
> mutate(hflights_df, gain = ArrDelay - DepDelay, gain_per_hour = gain/(AirTime/60))

#> # A tibble: 227,496 x 23
#>     Year Month Dayo… DayO… DepT… ArrT… Uniq… Flig… Tail… Actu… AirT… ArrD…
#>    <int> <int> <int> <int> <int> <int> <chr> <int> <chr> <int> <int> <int>
#>  1  2011     1     1     6  1400  1500 AA      428 N576…    60    40   -10
#>  2  2011     1     2     7  1401  1501 AA      428 N557…    60    45   - 9
#>  3  2011     1     3     1  1352  1502 AA      428 N541…    70    48   - 8
#>  4  2011     1     4     2  1403  1513 AA      428 N403…    70    39     3
#>  5  2011     1     5     3  1405  1507 AA      428 N492…    62    44   - 3
#>  6  2011     1     6     4  1359  1503 AA      428 N262…    64    45   - 7
#>  7  2011     1     7     5  1359  1509 AA      428 N493…    70    43   - 1
#>  8  2011     1     8     6  1355  1454 AA      428 N477…    59    40   -16
#>  9  2011     1     9     7  1443  1554 AA      428 N476…    71    41    44
#> 10  2011     1    10     1  1443  1553 AA      428 N504…    70    45    43
#> # ... with 227,486 more rows, and 11 more variables: DepDelay <int>,
#> #   Origin <chr>, Dest <chr>, Distance <int>, TaxiIn <int>, TaxiOut <int>,
#> #   Cancelled <int>, CancellationCode <chr>, Diverted <int>, gain <int>,
#> #   gain_per_hour <dbl>
…
