…
함수 summarise_at()의 첫번째 인자에 대상이 되는 변수를 나열하고, 구하고 싶은 함수를 funs()안에 넣으면 된다.

mutate_at() 사용법

iris 데이터에서 종별로 순위(rank) 및 percentile을 구해 원 데이터에 새로운 변수로 추가하고 싶다면

> iris %>% group_by(Species) %>% 
+   mutate_at(vars(Sepal.Length, Sepal.Width), funs(min_rank, cume_dist))

#> # A tibble: 150 x 9
#> # Groups:   Species [3]
#>    Sepal.Length Sepal.Width Petal.Length Petal.Width Species
#>           <dbl>       <dbl>        <dbl>       <dbl> <fct>  
#>  1          5.1         3.5          1.4         0.2 setosa 
#>  2          4.9         3            1.4         0.2 setosa 
#>  3          4.7         3.2          1.3         0.2 setosa 
#>  4          4.6         3.1          1.5         0.2 setosa 
#>  5          5           3.6          1.4         0.2 setosa 
#>  6          5.4         3.9          1.7         0.4 setosa 
#>  7          4.6         3.4          1.4         0.3 setosa 
#>  8          5           3.4          1.5         0.2 setosa 
#>  9          4.4         2.9          1.4         0.2 setosa 
#> 10          4.9         3.1          1.5         0.1 setosa 
#> # ... with 140 more rows, and 4 more variables:
#> #   Sepal.Length_min_rank <int>, Sepal.Width_min_rank <int>,
#> #   Sepal.Length_cume_dist <dbl>, Sepal.Width_cume_dist <dbl>
…
